<svg width="16" height="16" viewBox="0 0 16 16" fill="none" xmlns="http://www.w3.org/2000/svg">
<path d="M2.66659 2.66666H13.3333C14.0666 2.66666 14.6666 3.26666 14.6666 3.99999V12C14.6666 12.7333 14.0666 13.3333 13.3333 13.3333H2.66659C1.93325 13.3333 1.33325 12.7333 1.33325 12V3.99999C1.33325 3.26666 1.93325 2.66666 2.66659 2.66666Z" stroke="#353A3F" stroke-linecap="round" stroke-linejoin="round"/>
<path d="M14.6666 4L7.99992 8.66667L1.33325 4" stroke="#353A3F" stroke-linecap="round" stroke-linejoin="round"/>
</svg>
