<svg width="25" height="24" viewBox="0 0 25 24" fill="none" xmlns="http://www.w3.org/2000/svg">
<g clip-path="url(#clip0)">
<path d="M17.6093 21V19C17.6093 17.9391 17.1795 16.9217 16.4145 16.1716C15.6494 15.4214 14.6118 15 13.5299 15H5.37131C4.28941 15 3.25182 15.4214 2.4868 16.1716C1.72178 16.9217 1.29199 17.9391 1.29199 19V21" stroke="#142F8F" stroke-width="2" stroke-linecap="round" stroke-linejoin="round"/>
<path d="M9.45041 11C11.7034 11 13.5297 9.20914 13.5297 7C13.5297 4.79086 11.7034 3 9.45041 3C7.19747 3 5.37109 4.79086 5.37109 7C5.37109 9.20914 7.19747 11 9.45041 11Z" stroke="#142F8F" stroke-width="2" stroke-linecap="round" stroke-linejoin="round"/>
<path d="M23.7279 21V19C23.7273 18.1137 23.4264 17.2528 22.8727 16.5523C22.3189 15.8519 21.5436 15.3516 20.6685 15.13" stroke="#142F8F" stroke-width="2" stroke-linecap="round" stroke-linejoin="round"/>
<path d="M16.5894 3.13C17.4668 3.35031 18.2446 3.85071 18.8 4.55232C19.3554 5.25392 19.6568 6.11683 19.6568 7.005C19.6568 7.89318 19.3554 8.75608 18.8 9.45769C18.2446 10.1593 17.4668 10.6597 16.5894 10.88" stroke="#142F8F" stroke-width="2" stroke-linecap="round" stroke-linejoin="round"/>
</g>
<defs>
<clipPath id="clip0">
<rect x="0.271973" width="24.4759" height="24" fill="white"/>
</clipPath>
</defs>
</svg>
