<svg width="25" height="24" viewBox="0 0 25 24" fill="none" xmlns="http://www.w3.org/2000/svg">
<g clip-path="url(#clip0)">
<path d="M5.37109 12.55C7.38685 10.9036 9.92729 10.0021 12.5507 10.0021C15.1741 10.0021 17.7145 10.9036 19.7303 12.55" stroke="#24A3A3" stroke-width="2" stroke-linecap="round" stroke-linejoin="round"/>
<path d="M1.72021 9.00004C4.70059 6.424 8.53706 5.00269 12.51 5.00269C16.483 5.00269 20.3194 6.424 23.2998 9.00004" stroke="#24A3A3" stroke-width="2" stroke-linecap="round" stroke-linejoin="round"/>
<path d="M8.97119 16.11C10.0065 15.3887 11.2451 15.0012 12.5151 15.0012C13.7851 15.0012 15.0237 15.3887 16.059 16.11" stroke="#24A3A3" stroke-width="2" stroke-linecap="round" stroke-linejoin="round"/>
<path d="M12.5098 20H12.52" stroke="#24A3A3" stroke-width="2" stroke-linecap="round" stroke-linejoin="round"/>
</g>
<defs>
<clipPath id="clip0">
<rect x="0.271973" width="24.4759" height="24" fill="white"/>
</clipPath>
</defs>
</svg>
