<svg width="184" height="33" viewBox="0 0 184 33" fill="none" xmlns="http://www.w3.org/2000/svg">
<g clip-path="url(#clip0)">
<path fill-rule="evenodd" clip-rule="evenodd" d="M9.18469 26.0881C8.30192 26.1312 7.46946 26.5141 6.85983 27.1575C6.25021 27.8009 5.91016 28.6554 5.91016 29.5441C5.91016 30.4327 6.25021 31.2873 6.85983 31.9307C7.46946 32.5741 8.30192 32.957 9.18469 33H26.8997C28.8634 33.0006 30.7653 32.3096 32.2749 31.0469C33.7845 29.7842 34.8066 28.0297 35.1634 26.0881H9.18469Z" fill="url(#paint0_linear)"/>
<path fill-rule="evenodd" clip-rule="evenodd" d="M15.9297 8.36574C16.1578 7.97323 16.3068 7.53939 16.3681 7.089C16.4294 6.63861 16.4019 6.18049 16.2871 5.74079C16.1724 5.30108 15.9726 4.88842 15.6992 4.52634C15.4258 4.16427 15.0842 3.85989 14.6938 3.63057C14.3034 3.40125 13.872 3.25148 13.424 3.18983C12.9761 3.12817 12.5204 3.15583 12.0831 3.27122C11.6458 3.38661 11.2354 3.58748 10.8753 3.86236C10.5152 4.13723 10.2124 4.48073 9.98436 4.87324V4.92198L1.12283 20.3052C0.140899 22.0132 -0.214186 24.0134 0.119393 25.9575C0.452971 27.9017 1.45408 29.6666 2.94845 30.9451L15.9297 8.36574Z" fill="url(#paint1_linear)"/>
<path fill-rule="evenodd" clip-rule="evenodd" d="M27.8286 23.0992C28.2839 23.893 29.0341 24.4724 29.9143 24.71C30.7944 24.9476 31.7324 24.824 32.5219 24.3662C33.3114 23.9085 33.8877 23.1541 34.124 22.2692C34.3603 21.3842 34.2373 20.4411 33.7821 19.6473V19.5986L24.9205 4.22347C23.9399 2.51363 22.3943 1.20348 20.5524 0.520868C18.7105 -0.16174 16.6889 -0.173612 14.8392 0.487316L27.8286 23.0992Z" fill="url(#paint2_linear)"/>
<path d="M45.3013 24.3663L50.8912 11.8014C51.0151 11.474 51.2371 11.1933 51.5265 10.9983C51.816 10.8033 52.1585 10.7036 52.5068 10.713H52.6361C52.9864 10.6935 53.3335 10.7891 53.625 10.9854C53.9164 11.1818 54.1364 11.4682 54.2517 11.8014L59.777 24.3663C59.878 24.5385 59.9311 24.7349 59.9305 24.9348C59.9337 25.1018 59.9037 25.2677 59.8421 25.4228C59.7805 25.578 59.6887 25.7191 59.572 25.838C59.4553 25.9568 59.3161 26.051 59.1626 26.1149C59.0091 26.1787 58.8445 26.2111 58.6784 26.21C58.3929 26.2097 58.1146 26.1195 57.8828 25.9519C57.6509 25.7844 57.4772 25.548 57.3859 25.2759L56.1581 22.4413H48.8556L47.5793 25.3653C47.4848 25.6128 47.3156 25.8243 47.0953 25.97C46.875 26.1157 46.6149 26.1883 46.3514 26.1775C46.1899 26.1786 46.0297 26.1474 45.8803 26.0857C45.7308 26.024 45.595 25.9332 45.4808 25.8183C45.3666 25.7034 45.2762 25.5669 45.2148 25.4166C45.1535 25.2664 45.1225 25.1054 45.1236 24.9429C45.1378 24.7395 45.1987 24.5422 45.3013 24.3663ZM55.1645 20.0778L52.5068 13.9456L49.8573 20.0697L55.1645 20.0778ZM61.7319 12.1831C61.7308 12.0058 61.7647 11.83 61.8318 11.6659C61.8988 11.5018 61.9975 11.3528 62.1222 11.2274C62.247 11.102 62.3952 11.0027 62.5584 10.9353C62.7216 10.8679 62.8964 10.8338 63.0728 10.8349H63.3475C63.6269 10.8434 63.8997 10.9222 64.141 11.0641C64.3823 11.2059 64.5844 11.4064 64.7288 11.6471L72.2655 21.4586V12.1263C72.2914 11.7962 72.44 11.4881 72.6819 11.2634C72.9237 11.0386 73.2408 10.9138 73.5701 10.9138C73.8994 10.9138 74.2166 11.0386 74.4584 11.2634C74.7002 11.4881 74.8489 11.7962 74.8747 12.1263V24.8617C74.878 25.034 74.8469 25.2052 74.7833 25.3653C74.7197 25.5253 74.6248 25.671 74.5044 25.7936C74.3839 25.9162 74.2403 26.0133 74.0819 26.0793C73.9236 26.1452 73.7537 26.1786 73.5822 26.1775H73.5095C73.2301 26.169 72.9573 26.0902 72.716 25.9483C72.4747 25.8064 72.2726 25.606 72.1282 25.3653L64.3734 15.2695V24.9023C64.3475 25.2324 64.1989 25.5405 63.957 25.7652C63.7152 25.99 63.3981 26.1148 63.0688 26.1148C62.7395 26.1148 62.4223 25.99 62.1805 25.7652C61.9387 25.5405 61.79 25.2324 61.7642 24.9023L61.7319 12.1831ZM77.6697 12.2644C77.6675 12.0871 77.7007 11.9111 77.7675 11.747C77.8342 11.5829 77.933 11.4339 78.0581 11.3089C78.1831 11.1839 78.3319 11.0855 78.4955 11.0194C78.6592 10.9533 78.8343 10.9209 79.0106 10.9242H83.292C88.0337 10.9242 91.3053 14.1731 91.3053 18.4615V18.5021C91.3053 22.7743 88.0741 26.0881 83.292 26.0881H79.0106C78.8336 26.0914 78.6578 26.0588 78.4936 25.9922C78.3294 25.9257 78.1803 25.8265 78.0551 25.7006C77.93 25.5747 77.8313 25.4248 77.7651 25.2597C77.6988 25.0946 77.6664 24.9178 77.6697 24.7399V12.2644ZM83.3243 23.6353C84.0104 23.6812 84.6985 23.5818 85.3441 23.3434C85.9896 23.105 86.5781 22.733 87.0715 22.2514C87.565 21.7698 87.9524 21.1894 88.2085 20.5477C88.4647 19.9061 88.5841 19.2175 88.5588 18.5265V18.4778C88.5848 17.7848 88.4663 17.094 88.211 16.4498C87.9556 15.8056 87.569 15.2222 87.076 14.7373C86.583 14.2523 85.9945 13.8764 85.3484 13.6337C84.7022 13.3911 84.0128 13.2871 83.3243 13.3284H80.3193V23.6678L83.3243 23.6353ZM98.1877 18.5265V18.4778C98.1725 17.4456 98.3633 16.4209 98.7486 15.4641C99.134 14.5074 99.7061 13.638 100.431 12.9073C101.156 12.1767 102.02 11.5996 102.971 11.2101C103.922 10.8207 104.94 10.6268 105.967 10.6399C107.795 10.5657 109.595 11.109 111.08 12.1831C111.248 12.3101 111.384 12.4744 111.478 12.6633C111.572 12.8522 111.621 13.0604 111.621 13.2715C111.625 13.4474 111.593 13.6222 111.528 13.7856C111.463 13.9491 111.367 14.0979 111.244 14.2234C111.122 14.349 110.976 14.4487 110.814 14.5167C110.653 14.5848 110.48 14.6198 110.305 14.6198C110.011 14.6082 109.728 14.5029 109.497 14.3192C108.447 13.5031 107.148 13.0782 105.821 13.1172C104.474 13.1845 103.208 13.7853 102.3 14.7882C101.392 15.7911 100.915 17.1146 100.975 18.4696V18.5102C100.975 21.6291 103.026 23.9277 106.104 23.9277C107.408 23.9415 108.683 23.5407 109.747 22.7825V19.9397H106.775C106.622 19.944 106.469 19.9177 106.326 19.8623C106.184 19.8069 106.053 19.7235 105.943 19.6169C105.832 19.5104 105.744 19.3828 105.683 19.2416C105.622 19.1004 105.589 18.9484 105.587 18.7945C105.591 18.4814 105.719 18.1827 105.941 17.9636C106.164 17.7445 106.463 17.6228 106.775 17.6249H110.975C111.149 17.626 111.32 17.6616 111.48 17.7296C111.64 17.7976 111.785 17.8967 111.907 18.0213C112.028 18.1459 112.124 18.2934 112.189 18.4553C112.254 18.6173 112.286 18.7905 112.284 18.9651V23.0261C112.3 23.3667 112.222 23.7051 112.058 24.0035C111.894 24.3019 111.65 24.5484 111.355 24.7155C109.768 25.7822 107.9 26.3478 105.991 26.3399C104.957 26.39 103.924 26.2238 102.957 25.8518C101.991 25.4798 101.111 24.9101 100.375 24.1788C99.6381 23.4474 99.0606 22.5703 98.6786 21.603C98.2966 20.6356 98.1185 19.5991 98.1554 18.559L98.1877 18.5265ZM114.667 12.11C114.667 11.7568 114.806 11.418 115.055 11.1682C115.303 10.9184 115.64 10.778 115.992 10.778C116.343 10.778 116.68 10.9184 116.928 11.1682C117.177 11.418 117.316 11.7568 117.316 12.11V23.6678H124.15C124.472 23.6678 124.78 23.7961 125.007 24.0246C125.234 24.2531 125.362 24.563 125.362 24.8861C125.362 25.2092 125.234 25.5191 125.007 25.7476C124.78 25.976 124.472 26.1044 124.15 26.1044H115.975C115.798 26.1077 115.623 26.0751 115.458 26.0085C115.294 25.9419 115.145 25.8427 115.02 25.7169C114.895 25.591 114.796 25.441 114.73 25.276C114.664 25.1109 114.631 24.9341 114.634 24.7561L114.667 12.11ZM125.394 18.5265V18.4778C125.389 16.3753 126.214 14.3569 127.689 12.8665C129.164 11.376 131.167 10.5357 133.258 10.5303C135.349 10.5249 137.357 11.3549 138.839 12.8377C140.321 14.3206 141.157 16.3347 141.163 18.4371V18.4778C141.169 20.5802 140.344 22.599 138.87 24.0902C137.396 25.5814 135.394 26.4228 133.303 26.4293C131.212 26.4357 129.204 25.6067 127.721 24.1247C126.238 22.6426 125.401 20.6289 125.394 18.5265ZM138.384 18.5265V18.4778C138.41 17.783 138.297 17.09 138.052 16.4399C137.806 15.7898 137.434 15.1958 136.957 14.6929C136.479 14.1901 135.906 13.7886 135.272 13.5124C134.637 13.2362 133.954 13.0907 133.262 13.0847C132.574 13.0851 131.893 13.2256 131.26 13.4978C130.628 13.7699 130.056 14.1681 129.581 14.6682C129.105 15.1683 128.735 15.7601 128.494 16.4079C128.252 17.0556 128.143 17.7459 128.173 18.4371V18.4778C128.143 19.1737 128.252 19.8687 128.495 20.5212C128.738 21.1737 129.109 21.7702 129.586 22.2752C130.064 22.7802 130.637 23.1832 131.273 23.4601C131.909 23.7371 132.594 23.8823 133.287 23.8871C133.971 23.8855 134.648 23.7448 135.278 23.4735C135.907 23.2022 136.475 22.8058 136.948 22.3082C137.421 21.8105 137.789 21.2219 138.03 20.5776C138.272 19.9334 138.381 19.2467 138.351 18.559L138.384 18.5265ZM143.295 12.24C143.299 11.8945 143.438 11.5643 143.681 11.32C143.924 11.0757 144.252 10.9366 144.596 10.9323H150.024C151.463 10.8375 152.88 11.3194 153.966 12.2725C154.299 12.599 154.561 12.9913 154.737 13.4245C154.912 13.8578 154.996 14.3228 154.984 14.7903V14.8309C154.998 15.5456 154.8 16.2484 154.416 16.85C154.032 17.4516 153.479 17.9249 152.827 18.2097C154.596 18.8189 155.824 19.8341 155.824 21.889V21.9296C155.824 24.6343 153.603 26.0881 150.242 26.0881H144.588C144.411 26.0903 144.236 26.0569 144.073 25.9898C143.91 25.9228 143.762 25.8234 143.637 25.6976C143.513 25.5719 143.415 25.4223 143.349 25.2578C143.284 25.0933 143.251 24.9171 143.255 24.7399L143.295 12.24ZM149.523 17.2919C151.22 17.2919 152.367 16.6178 152.367 15.2289V15.1883C152.367 13.9944 151.413 13.2634 149.717 13.2634H145.904V17.3244L149.523 17.2919ZM150.331 23.7002C152.14 23.7002 153.239 22.9855 153.239 21.621V21.5804C153.239 20.2971 152.221 19.5417 150.137 19.5417H145.937V23.7002H150.331ZM156.939 24.3257L162.545 11.7689C162.669 11.4415 162.891 11.1608 163.18 10.9658C163.47 10.7709 163.812 10.6712 164.161 10.6806H164.29C164.632 10.6772 164.966 10.7799 165.248 10.9747C165.53 11.1694 165.745 11.4467 165.865 11.7689L171.374 24.3663C171.471 24.54 171.524 24.7354 171.528 24.9348C171.531 25.1018 171.501 25.2677 171.439 25.4228C171.378 25.578 171.286 25.7191 171.169 25.838C171.052 25.9568 170.913 26.051 170.76 26.1149C170.606 26.1787 170.442 26.2111 170.276 26.21C169.99 26.211 169.711 26.1212 169.479 25.9535C169.247 25.7857 169.073 25.5486 168.983 25.2759L167.755 22.4413H160.428L159.136 25.3572C159.04 25.6033 158.87 25.8134 158.65 25.9588C158.43 26.1042 158.171 26.1777 157.908 26.1694C157.593 26.1631 157.293 26.0345 157.07 25.8104C156.847 25.5863 156.719 25.2841 156.713 24.9673C156.721 24.7574 156.777 24.552 156.874 24.3663L156.939 24.3257ZM166.81 20.0372L164.161 13.9131L161.511 20.0372H166.81ZM173.313 12.1831C173.313 11.8299 173.452 11.4911 173.701 11.2413C173.949 10.9915 174.286 10.8511 174.638 10.8511C174.989 10.8511 175.326 10.9915 175.574 11.2413C175.823 11.4911 175.962 11.8299 175.962 12.1831V23.6678H182.788C183.11 23.6678 183.418 23.7961 183.645 24.0246C183.872 24.2531 184 24.563 184 24.8861C184 25.2092 183.872 25.5191 183.645 25.7476C183.418 25.976 183.11 26.1044 182.788 26.1044H174.646C174.469 26.1066 174.294 26.0732 174.131 26.0061C173.968 25.939 173.82 25.8396 173.695 25.7139C173.571 25.5881 173.473 25.4386 173.408 25.274C173.342 25.1095 173.31 24.9334 173.313 24.7561V12.1831Z" fill="black"/>
</g>
<defs>
<linearGradient id="paint0_linear" x1="35.1634" y1="29.5481" x2="5.75156" y2="29.5481" gradientUnits="userSpaceOnUse">
<stop stop-color="#FFA019"/>
<stop offset="1" stop-color="#EB643C"/>
</linearGradient>
<linearGradient id="paint1_linear" x1="-0.658786" y1="1004.06" x2="583.389" y2="407.118" gradientUnits="userSpaceOnUse">
<stop stop-color="#FFA019"/>
<stop offset="1" stop-color="#EB643C"/>
</linearGradient>
<linearGradient id="paint2_linear" x1="442.854" y1="-37.9869" x2="941.624" y2="637.261" gradientUnits="userSpaceOnUse">
<stop stop-color="#FFA019"/>
<stop offset="1" stop-color="#EB643C"/>
</linearGradient>
<clipPath id="clip0">
<rect width="184" height="33" fill="white"/>
</clipPath>
</defs>
</svg>
